%YAML 1.1
%TAG !u! tag:unity3d.com,2011:
--- !u!114 &11400000
MonoBehaviour:
  m_ObjectHideFlags: 0
  m_CorrespondingSourceObject: {fileID: 0}
  m_PrefabInstance: {fileID: 0}
  m_PrefabAsset: {fileID: 0}
  m_GameObject: {fileID: 0}
  m_Enabled: 1
  m_EditorHideFlags: 0
  m_Script: {fileID: 11500000, guid: 4ee808c5937c8264b90d56fc8dec385b, type: 3}
  m_Name: Mercury
  m_EditorClassIdentifier: 
  planetName: Mercury
  realSize: 4880
  distanceFromSun: 57910
  moons: 0
  realRotationPeriod: 1406.4
  realOrbitPeriod: 0.241
  axisInclination: 0
  orbitInclination: 7
  translationSpeed: 2
  speedVariance: 0.1
  rotationSpeed: -95
  id: 1
