%YAML 1.1
%TAG !u! tag:unity3d.com,2011:
--- !u!114 &11400000
MonoBehaviour:
  m_ObjectHideFlags: 0
  m_CorrespondingSourceObject: {fileID: 0}
  m_PrefabInstance: {fileID: 0}
  m_PrefabAsset: {fileID: 0}
  m_GameObject: {fileID: 0}
  m_Enabled: 1
  m_EditorHideFlags: 0
  m_Script: {fileID: 11500000, guid: 4ee808c5937c8264b90d56fc8dec385b, type: 3}
  m_Name: Uranus
  m_EditorClassIdentifier: 
  planetName: Uranus
  realSize: 51118
  distanceFromSun: 2870990
  moons: 15
  realRotationPeriod: 17.9
  realOrbitPeriod: 84.01
  axisInclination: 97.86
  orbitInclination: 0.77
  translationSpeed: 0.8
  speedVariance: 0.1
  rotationSpeed: 10
  id: 7
